"VertexLitGeneric"
{
// File Created by Wall Worm ( http://dev.wallworm.com )
	// Get Wall Worm Pro to remove this comment ( https://wallworm.com/store/index.php?route=product/product&product_id=54 )

// BEGIN Textures
	$basetexture "myproject/6story_D"
	$envmapmask "myproject/6story_S"
	$bumpmap "myproject/6story_N"
// END Textures



// BEGIN ENV and Reflections
	"$envmap" "env_cubemap"

// END ENV and Reflections

}