"VertexLitGeneric"
{
// File Created by Wall Worm ( http://dev.wallworm.com )
	// Get Wall Worm Pro to remove this comment ( https://wallworm.com/store/index.php?route=product/product&product_id=54 )

// BEGIN Textures
	$basetexture "eboxtex/eboxtex_D"
	$envmapmask "eboxtex/eboxtex_S"
	$selfillumtexture "eboxtex/eboxtex_I"
	$selfillummask "eboxtex/eboxtex_I"
// END Textures



// BEGIN ENV and Reflections
	"$envmap" "env_cubemap"

// END ENV and Reflections

	 $selfillum "1"
}