"LightmappedGeneric"
{
// File Created by Wall Worm ( http://dev.wallworm.com )
	// Get Wall Worm Pro to remove this comment ( https://wallworm.com/store/index.php?route=product/product&product_id=54 )

// BEGIN Textures
	$basetexture "facade6/facade6_D"
	$selfillumtexture "facade6/facade8_I"
	$selfillummask "facade6/facade8_I"
// END Textures



	 $selfillum "1"
}